…
The dataset has 1384617 observation and 15 variables. The key variable
in the dataset are their “ids”, “aisle”, and “department name”. Also, we
can see the data set contain different product name.

``` r
# Find number aisles are the most items ordered from and rank it
rank_aisle <- instacart %>%
  group_by(aisle) %>%
  summarize(total_ordered = n())%>%
  arrange(-total_ordered)
rank_aisle
```

    ## # A tibble: 134 × 2
    ##    aisle                         total_ordered
    ##    <chr>                                 <int>
    ##  1 fresh vegetables                     150609
    ##  2 fresh fruits                         150473
    ##  3 packaged vegetables fruits            78493
    ##  4 yogurt                                55240
    ##  5 packaged cheese                       41699
    ##  6 water seltzer sparkling water         36617
    ##  7 milk                                  32644
    ##  8 chips pretzels                        31269
    ##  9 soy lactosefree                       26240
    ## 10 bread                                 23635
    ## # ℹ 124 more rows
…
